<?xml version="1.0" encoding="UTF-8" standalone="no"?>
<svg
   xmlns:dc="http://purl.org/dc/elements/1.1/"
   xmlns:cc="http://creativecommons.org/ns#"
   xmlns:rdf="http://www.w3.org/1999/02/22-rdf-syntax-ns#"
   xmlns:svg="http://www.w3.org/2000/svg"
   xmlns="http://www.w3.org/2000/svg"
   xmlns:sodipodi="http://sodipodi.sourceforge.net/DTD/sodipodi-0.dtd"
   xmlns:inkscape="http://www.inkscape.org/namespaces/inkscape"
   width="240"
   height="320"
   version="1.1"
   id="svg4"
   sodipodi:docname="gnome-banner.svg"
   inkscape:version="1.0.1 (3bc2e813f5, 2020-09-07)">
  <metadata
     id="metadata10">
    <rdf:RDF>
      <cc:Work
         rdf:about="">
        <dc:format>image/svg+xml</dc:format>
        <dc:type
           rdf:resource="http://purl.org/dc/dcmitype/StillImage" />
        <dc:title></dc:title>
      </cc:Work>
    </rdf:RDF>
  </metadata>
  <defs
     id="defs8" />
  <sodipodi:namedview
     pagecolor="#ffffff"
     bordercolor="#666666"
     borderopacity="1"
     objecttolerance="10"
     gridtolerance="10"
     guidetolerance="10"
     inkscape:pageopacity="0"
     inkscape:pageshadow="2"
     inkscape:window-width="1920"
     inkscape:window-height="1016"
     id="namedview6"
     showgrid="false"
     inkscape:zoom="2.203942"
     inkscape:cx="145.04416"
     inkscape:cy="154.19915"
     inkscape:window-x="0"
     inkscape:window-y="0"
     inkscape:window-maximized="1"
     inkscape:current-layer="svg4" />
  <path
     d="m 203.23503,32 c -54.10225,0 -64.23931,77.04487 -33.81188,77.04487 C 199.85059,109.04487 257.32102,32 203.21876,32 Z m -89.81789,67.493586 c 16.19001,0.976284 33.97459,-61.831154 3.53089,-57.877215 -30.443709,3.95394 -19.737156,56.884662 -3.53089,57.877215 z M 39.170946,138.52857 C 50.691067,133.45191 40.635368,83.856812 21.060927,97.362038 1.470214,110.8998 27.650826,143.58896 39.170946,138.52857 Z m 32.461355,-25.98536 c 13.716753,-2.7824 14.481507,-59.048748 -9.990612,-48.960508 -24.47212,10.088241 -3.709869,51.775448 9.990612,48.976788 z m 71.626509,125.92403 c 2.4407,18.58189 -13.63539,27.75893 -29.3698,15.78321 -50.115773,-38.14006 82.9351,-57.16127 74.16485,-109.27843 C 180.78056,101.72276 48.071378,115.03273 32.955288,182.72157 22.736876,228.4929 75.065558,292 129.67223,292 c 26.86401,0 57.86094,-24.26059 63.65354,-54.99719 4.42582,-23.43074 -52.10088,-14.04217 -50.06696,1.46443 z"
     fill="#474747"
     id="path2"
     style="fill:#ffffff;stroke-width:16.2714" />
</svg>
